-------------------------------------------------------------------------------
Test set: es.udc.fic.ri.p1.AppTest
-------------------------------------------------------------------------------
Tests run: 1, Failures: 0, Errors: 0, Skipped: 0, Time elapsed: 0.012 s - in es.udc.fic.ri.p1.AppTest
